Request method:	GET
Request URI:	https://swapi.dev/api/people/
Proxy:			<none>
Request params:	<none>
Query params:	<none>
Form params:	<none>
Path params:	<none>
Headers:		Accept=*/*
Cookies:		<none>
Multiparts:		<none>
Body:			<none>
HTTP/1.1 200 OK
Server: nginx/1.16.1
Date: Mon, 02 Nov 2020 21:32:53 GMT
Content-Type: application/json
Transfer-Encoding: chunked
Connection: keep-alive
Vary: Accept, Cookie
X-Frame-Options: SAMEORIGIN
ETag: "35e90fa80df5a1200859818a74a65a4e"
Allow: GET, HEAD, OPTIONS
Strict-Transport-Security: max-age=15768000

{
    "count": 82,
    "next": "http://swapi.dev/api/people/?page=2",
    "previous": null,
    "results": [
        {
            "name": "Luke Skywalker",
            "height": "172",
            "mass": "77",
            "hair_color": "blond",
            "skin_color": "fair",
            "eye_color": "blue",
            "birth_year": "19BBY",
            "gender": "male",
            "homeworld": "http://swapi.dev/api/planets/1/",
            "films": [
                "http://swapi.dev/api/films/1/",
                "http://swapi.dev/api/films/2/",
                "http://swapi.dev/api/films/3/",
                "http://swapi.dev/api/films/6/"
            ],
            "species": [
                
            ],
            "vehicles": [
                "http://swapi.dev/api/vehicles/14/",
                "http://swapi.dev/api/vehicles/30/"
            ],
            "starships": [
                "http://swapi.dev/api/starships/12/",
                "http://swapi.dev/api/starships/22/"
            ],
            "created": "2014-12-09T13:50:51.644000Z",
            "edited": "2014-12-20T21:17:56.891000Z",
            "url": "http://swapi.dev/api/people/1/"
        },
        {
            "name": "C-3PO",
            "height": "167",
            "mass": "75",
            "hair_color": "n/a",
            "skin_color": "gold",
            "eye_color": "yellow",
            "birth_year": "112BBY",
            "gender": "n/a",
            "homeworld": "http://swapi.dev/api/planets/1/",
            "films": [
                "http://swapi.dev/api/films/1/",
                "http://swapi.dev/api/films/2/",
                "http://swapi.dev/api/films/3/",
                "http://swapi.dev/api/films/4/",
                "http://swapi.dev/api/films/5/",
                "http://swapi.dev/api/films/6/"
            ],
            "species": [
                "http://swapi.dev/api/species/2/"
            ],
            "vehicles": [
                
            ],
            "starships": [
                
            ],
            "created": "2014-12-10T15:10:51.357000Z",
            "edited": "2014-12-20T21:17:50.309000Z",
            "url": "http://swapi.dev/api/people/2/"
        },
        {
            "name": "R2-D2",
            "height": "96",
            "mass": "32",
            "hair_color": "n/a",
            "skin_color": "white, blue",
            "eye_color": "red",
            "birth_year": "33BBY",
            "gender": "n/a",
            "homeworld": "http://swapi.dev/api/planets/8/",
            "films": [
                "http://swapi.dev/api/films/1/",
                "http://swapi.dev/api/films/2/",
                "http://swapi.dev/api/films/3/",
                "http://swapi.dev/api/films/4/",
                "http://swapi.dev/api/films/5/",
                "http://swapi.dev/api/films/6/"
            ],
            "species": [
                "http://swapi.dev/api/species/2/"
            ],
            "vehicles": [
                
            ],
            "starships": [
                
            ],
            "created": "2014-12-10T15:11:50.376000Z",
            "edited": "2014-12-20T21:17:50.311000Z",
            "url": "http://swapi.dev/api/people/3/"
        },
        {
            "name": "Darth Vader",
            "height": "202",
            "mass": "136",
            "hair_color": "none",
            "skin_color": "white",
            "eye_color": "yellow",
            "birth_year": "41.9BBY",
            "gender": "male",
            "homeworld": "http://swapi.dev/api/planets/1/",
            "films": [
                "http://swapi.dev/api/films/1/",
                "http://swapi.dev/api/films/2/",
                "http://swapi.dev/api/films/3/",
                "http://swapi.dev/api/films/6/"
            ],
            "species": [
                
            ],
            "vehicles": [
                
            ],
            "starships": [
                "http://swapi.dev/api/starships/13/"
            ],
            "created": "2014-12-10T15:18:20.704000Z",
            "edited": "2014-12-20T21:17:50.313000Z",
            "url": "http://swapi.dev/api/people/4/"
        },
        {
            "name": "Leia Organa",
            "height": "150",
            "mass": "49",
            "hair_color": "brown",
            "skin_color": "light",
            "eye_color": "brown",
            "birth_year": "19BBY",
            "gender": "female",
            "homeworld": "http://swapi.dev/api/planets/2/",
            "films": [
                "http://swapi.dev/api/films/1/",
                "http://swapi.dev/api/films/2/",
                "http://swapi.dev/api/films/3/",
                "http://swapi.dev/api/films/6/"
            ],
            "species": [
                
            ],
            "vehicles": [
                "http://swapi.dev/api/vehicles/30/"
            ],
            "starships": [
                
            ],
            "created": "2014-12-10T15:20:09.791000Z",
            "edited": "2014-12-20T21:17:50.315000Z",
            "url": "http://swapi.dev/api/people/5/"
        },
        {
            "name": "Owen Lars",
            "height": "178",
            "mass": "120",
            "hair_color": "brown, grey",
            "skin_color": "light",
            "eye_color": "blue",
            "birth_year": "52BBY",
            "gender": "male",
            "homeworld": "http://swapi.dev/api/planets/1/",
            "films": [
                "http://swapi.dev/api/films/1/",
                "http://swapi.dev/api/films/5/",
                "http://swapi.dev/api/films/6/"
            ],
            "species": [
                
            ],
            "vehicles": [
                
            ],
            "starships": [
                
            ],
            "created": "2014-12-10T15:52:14.024000Z",
            "edited": "2014-12-20T21:17:50.317000Z",
            "url": "http://swapi.dev/api/people/6/"
        },
        {
            "name": "Beru Whitesun lars",
            "height": "165",
            "mass": "75",
            "hair_color": "brown",
            "skin_color": "light",
            "eye_color": "blue",
            "birth_year": "47BBY",
            "gender": "female",
            "homeworld": "http://swapi.dev/api/planets/1/",
            "films": [
                "http://swapi.dev/api/films/1/",
                "http://swapi.dev/api/films/5/",
                "http://swapi.dev/api/films/6/"
            ],
            "species": [
                
            ],
            "vehicles": [
                
            ],
            "starships": [
                
            ],
            "created": "2014-12-10T15:53:41.121000Z",
            "edited": "2014-12-20T21:17:50.319000Z",
            "url": "http://swapi.dev/api/people/7/"
        },
        {
            "name": "R5-D4",
            "height": "97",
            "mass": "32",
            "hair_color": "n/a",
            "skin_color": "white, red",
            "eye_color": "red",
            "birth_year": "unknown",
            "gender": "n/a",
            "homeworld": "http://swapi.dev/api/planets/1/",
            "films": [
                "http://swapi.dev/api/films/1/"
            ],
            "species": [
                "http://swapi.dev/api/species/2/"
            ],
            "vehicles": [
                
            ],
            "starships": [
                
            ],
            "created": "2014-12-10T15:57:50.959000Z",
            "edited": "2014-12-20T21:17:50.321000Z",
            "url": "http://swapi.dev/api/people/8/"
        },
        {
            "name": "Biggs Darklighter",
            "height": "183",
            "mass": "84",
            "hair_color": "black",
            "skin_color": "light",
            "eye_color": "brown",
            "birth_year": "24BBY",
            "gender": "male",
            "homeworld": "http://swapi.dev/api/planets/1/",
            "films": [
                "http://swapi.dev/api/films/1/"
            ],
            "species": [
                
            ],
            "vehicles": [
                
            ],
            "starships": [
                "http://swapi.dev/api/starships/12/"
            ],
            "created": "2014-12-10T15:59:50.509000Z",
            "edited": "2014-12-20T21:17:50.323000Z",
            "url": "http://swapi.dev/api/people/9/"
        },
        {
            "name": "Obi-Wan Kenobi",
            "height": "182",
            "mass": "77",
            "hair_color": "auburn, white",
            "skin_color": "fair",
            "eye_color": "blue-gray",
            "birth_year": "57BBY",
            "gender": "male",
            "homeworld": "http://swapi.dev/api/planets/20/",
            "films": [
                "http://swapi.dev/api/films/1/",
                "http://swapi.dev/api/films/2/",
                "http://swapi.dev/api/films/3/",
                "http://swapi.dev/api/films/4/",
                "http://swapi.dev/api/films/5/",
                "http://swapi.dev/api/films/6/"
            ],
            "species": [
                
            ],
            "vehicles": [
                "http://swapi.dev/api/vehicles/38/"
            ],
            "starships": [
                "http://swapi.dev/api/starships/48/",
                "http://swapi.dev/api/starships/59/",
                "http://swapi.dev/api/starships/64/",
                "http://swapi.dev/api/starships/65/",
                "http://swapi.dev/api/starships/74/"
            ],
            "created": "2014-12-10T16:16:29.192000Z",
            "edited": "2014-12-20T21:17:50.325000Z",
            "url": "http://swapi.dev/api/people/10/"
        }
    ]
}
Request method:	GET
Request URI:	https://swapi.dev/api/people/?search=Darth%20Vader
Proxy:			<none>
Request params:	<none>
Query params:	search=Darth Vader
Form params:	<none>
Path params:	<none>
Headers:		Accept=*/*
Cookies:		<none>
Multiparts:		<none>
Body:			<none>
HTTP/1.1 200 OK
Server: nginx/1.16.1
Date: Mon, 02 Nov 2020 21:32:56 GMT
Content-Type: application/json
Transfer-Encoding: chunked
Connection: keep-alive
Vary: Accept, Cookie
X-Frame-Options: SAMEORIGIN
ETag: "3d7ec9cb4a2a46509269d52b949f4d6d"
Allow: GET, HEAD, OPTIONS
Strict-Transport-Security: max-age=15768000

{
    "count": 1,
    "next": null,
    "previous": null,
    "results": [
        {
            "name": "Darth Vader",
            "height": "202",
            "mass": "136",
            "hair_color": "none",
            "skin_color": "white",
            "eye_color": "yellow",
            "birth_year": "41.9BBY",
            "gender": "male",
            "homeworld": "http://swapi.dev/api/planets/1/",
            "films": [
                "http://swapi.dev/api/films/1/",
                "http://swapi.dev/api/films/2/",
                "http://swapi.dev/api/films/3/",
                "http://swapi.dev/api/films/6/"
            ],
            "species": [
                
            ],
            "vehicles": [
                
            ],
            "starships": [
                "http://swapi.dev/api/starships/13/"
            ],
            "created": "2014-12-10T15:18:20.704000Z",
            "edited": "2014-12-20T21:17:50.313000Z",
            "url": "http://swapi.dev/api/people/4/"
        }
    ]
}
Request method:	GET
Request URI:	https://swapi.dev/api/planets/
Proxy:			<none>
Request params:	<none>
Query params:	<none>
Form params:	<none>
Path params:	<none>
Headers:		Accept=*/*
Cookies:		<none>
Multiparts:		<none>
Body:			<none>
HTTP/1.1 200 OK
Server: nginx/1.16.1
Date: Mon, 02 Nov 2020 21:32:56 GMT
Content-Type: application/json
Transfer-Encoding: chunked
Connection: keep-alive
Vary: Accept, Cookie
X-Frame-Options: SAMEORIGIN
ETag: "87c7d9cfc6ffa456c7d533fc153a0411"
Allow: GET, HEAD, OPTIONS
Strict-Transport-Security: max-age=15768000

{
    "count": 60,
    "next": "http://swapi.dev/api/planets/?page=2",
    "previous": null,
    "results": [
        {
            "name": "Tatooine",
            "rotation_period": "23",
            "orbital_period": "304",
            "diameter": "10465",
            "climate": "arid",
            "gravity": "1 standard",
            "terrain": "desert",
            "surface_water": "1",
            "population": "200000",
            "residents": [
                "http://swapi.dev/api/people/1/",
                "http://swapi.dev/api/people/2/",
                "http://swapi.dev/api/people/4/",
                "http://swapi.dev/api/people/6/",
                "http://swapi.dev/api/people/7/",
                "http://swapi.dev/api/people/8/",
                "http://swapi.dev/api/people/9/",
                "http://swapi.dev/api/people/11/",
                "http://swapi.dev/api/people/43/",
                "http://swapi.dev/api/people/62/"
            ],
            "films": [
                "http://swapi.dev/api/films/1/",
                "http://swapi.dev/api/films/3/",
                "http://swapi.dev/api/films/4/",
                "http://swapi.dev/api/films/5/",
                "http://swapi.dev/api/films/6/"
            ],
            "created": "2014-12-09T13:50:49.641000Z",
            "edited": "2014-12-20T20:58:18.411000Z",
            "url": "http://swapi.dev/api/planets/1/"
        },
        {
            "name": "Alderaan",
            "rotation_period": "24",
            "orbital_period": "364",
            "diameter": "12500",
            "climate": "temperate",
            "gravity": "1 standard",
            "terrain": "grasslands, mountains",
            "surface_water": "40",
            "population": "2000000000",
            "residents": [
                "http://swapi.dev/api/people/5/",
                "http://swapi.dev/api/people/68/",
                "http://swapi.dev/api/people/81/"
            ],
            "films": [
                "http://swapi.dev/api/films/1/",
                "http://swapi.dev/api/films/6/"
            ],
            "created": "2014-12-10T11:35:48.479000Z",
            "edited": "2014-12-20T20:58:18.420000Z",
            "url": "http://swapi.dev/api/planets/2/"
        },
        {
            "name": "Yavin IV",
            "rotation_period": "24",
            "orbital_period": "4818",
            "diameter": "10200",
            "climate": "temperate, tropical",
            "gravity": "1 standard",
            "terrain": "jungle, rainforests",
            "surface_water": "8",
            "population": "1000",
            "residents": [
                
            ],
            "films": [
                "http://swapi.dev/api/films/1/"
            ],
            "created": "2014-12-10T11:37:19.144000Z",
            "edited": "2014-12-20T20:58:18.421000Z",
            "url": "http://swapi.dev/api/planets/3/"
        },
        {
            "name": "Hoth",
            "rotation_period": "23",
            "orbital_period": "549",
            "diameter": "7200",
            "climate": "frozen",
            "gravity": "1.1 standard",
            "terrain": "tundra, ice caves, mountain ranges",
            "surface_water": "100",
            "population": "unknown",
            "residents": [
                
            ],
            "films": [
                "http://swapi.dev/api/films/2/"
            ],
            "created": "2014-12-10T11:39:13.934000Z",
            "edited": "2014-12-20T20:58:18.423000Z",
            "url": "http://swapi.dev/api/planets/4/"
        },
        {
            "name": "Dagobah",
            "rotation_period": "23",
            "orbital_period": "341",
            "diameter": "8900",
            "climate": "murky",
            "gravity": "N/A",
            "terrain": "swamp, jungles",
            "surface_water": "8",
            "population": "unknown",
            "residents": [
                
            ],
            "films": [
                "http://swapi.dev/api/films/2/",
                "http://swapi.dev/api/films/3/",
                "http://swapi.dev/api/films/6/"
            ],
            "created": "2014-12-10T11:42:22.590000Z",
            "edited": "2014-12-20T20:58:18.425000Z",
            "url": "http://swapi.dev/api/planets/5/"
        },
        {
            "name": "Bespin",
            "rotation_period": "12",
            "orbital_period": "5110",
            "diameter": "118000",
            "climate": "temperate",
            "gravity": "1.5 (surface), 1 standard (Cloud City)",
            "terrain": "gas giant",
            "surface_water": "0",
            "population": "6000000",
            "residents": [
                "http://swapi.dev/api/people/26/"
            ],
            "films": [
                "http://swapi.dev/api/films/2/"
            ],
            "created": "2014-12-10T11:43:55.240000Z",
            "edited": "2014-12-20T20:58:18.427000Z",
            "url": "http://swapi.dev/api/planets/6/"
        },
        {
            "name": "Endor",
            "rotation_period": "18",
            "orbital_period": "402",
            "diameter": "4900",
            "climate": "temperate",
            "gravity": "0.85 standard",
            "terrain": "forests, mountains, lakes",
            "surface_water": "8",
            "population": "30000000",
            "residents": [
                "http://swapi.dev/api/people/30/"
            ],
            "films": [
                "http://swapi.dev/api/films/3/"
            ],
            "created": "2014-12-10T11:50:29.349000Z",
            "edited": "2014-12-20T20:58:18.429000Z",
            "url": "http://swapi.dev/api/planets/7/"
        },
        {
            "name": "Naboo",
            "rotation_period": "26",
            "orbital_period": "312",
            "diameter": "12120",
            "climate": "temperate",
            "gravity": "1 standard",
            "terrain": "grassy hills, swamps, forests, mountains",
            "surface_water": "12",
            "population": "4500000000",
            "residents": [
                "http://swapi.dev/api/people/3/",
                "http://swapi.dev/api/people/21/",
                "http://swapi.dev/api/people/35/",
                "http://swapi.dev/api/people/36/",
                "http://swapi.dev/api/people/37/",
                "http://swapi.dev/api/people/38/",
                "http://swapi.dev/api/people/39/",
                "http://swapi.dev/api/people/42/",
                "http://swapi.dev/api/people/60/",
                "http://swapi.dev/api/people/61/",
                "http://swapi.dev/api/people/66/"
            ],
            "films": [
                "http://swapi.dev/api/films/3/",
                "http://swapi.dev/api/films/4/",
                "http://swapi.dev/api/films/5/",
                "http://swapi.dev/api/films/6/"
            ],
            "created": "2014-12-10T11:52:31.066000Z",
            "edited": "2014-12-20T20:58:18.430000Z",
            "url": "http://swapi.dev/api/planets/8/"
        },
        {
            "name": "Coruscant",
            "rotation_period": "24",
            "orbital_period": "368",
            "diameter": "12240",
            "climate": "temperate",
            "gravity": "1 standard",
            "terrain": "cityscape, mountains",
            "surface_water": "unknown",
            "population": "1000000000000",
            "residents": [
                "http://swapi.dev/api/people/34/",
                "http://swapi.dev/api/people/55/",
                "http://swapi.dev/api/people/74/"
            ],
            "films": [
                "http://swapi.dev/api/films/3/",
                "http://swapi.dev/api/films/4/",
                "http://swapi.dev/api/films/5/",
                "http://swapi.dev/api/films/6/"
            ],
            "created": "2014-12-10T11:54:13.921000Z",
            "edited": "2014-12-20T20:58:18.432000Z",
            "url": "http://swapi.dev/api/planets/9/"
        },
        {
            "name": "Kamino",
            "rotation_period": "27",
            "orbital_period": "463",
            "diameter": "19720",
            "climate": "temperate",
            "gravity": "1 standard",
            "terrain": "ocean",
            "surface_water": "100",
            "population": "1000000000",
            "residents": [
                "http://swapi.dev/api/people/22/",
                "http://swapi.dev/api/people/72/",
                "http://swapi.dev/api/people/73/"
            ],
            "films": [
                "http://swapi.dev/api/films/5/"
            ],
            "created": "2014-12-10T12:45:06.577000Z",
            "edited": "2014-12-20T20:58:18.434000Z",
            "url": "http://swapi.dev/api/planets/10/"
        }
    ]
}
Request method:	GET
Request URI:	https://swapi.dev/api/planets/?search=Dagobah
Proxy:			<none>
Request params:	<none>
Query params:	search=Dagobah
Form params:	<none>
Path params:	<none>
Headers:		Accept=*/*
Cookies:		<none>
Multiparts:		<none>
Body:			<none>
HTTP/1.1 200 OK
Server: nginx/1.16.1
Date: Mon, 02 Nov 2020 21:32:57 GMT
Content-Type: application/json
Transfer-Encoding: chunked
Connection: keep-alive
Vary: Accept, Cookie
X-Frame-Options: SAMEORIGIN
ETag: "a2cbfd92e694d6df5675acd745cffa2e"
Allow: GET, HEAD, OPTIONS
Strict-Transport-Security: max-age=15768000

{
    "count": 1,
    "next": null,
    "previous": null,
    "results": [
        {
            "name": "Dagobah",
            "rotation_period": "23",
            "orbital_period": "341",
            "diameter": "8900",
            "climate": "murky",
            "gravity": "N/A",
            "terrain": "swamp, jungles",
            "surface_water": "8",
            "population": "unknown",
            "residents": [
                
            ],
            "films": [
                "http://swapi.dev/api/films/2/",
                "http://swapi.dev/api/films/3/",
                "http://swapi.dev/api/films/6/"
            ],
            "created": "2014-12-10T11:42:22.590000Z",
            "edited": "2014-12-20T20:58:18.425000Z",
            "url": "http://swapi.dev/api/planets/5/"
        }
    ]
}
